train
0 / 1000 :   1.44989e+07 calc 6.80091309547
1 / 1000 :   1.42986e+07 calc 3.24482488632
2 / 1000 :   1.41028e+07 calc 3.34921097755
3 / 1000 :   1.3865e+07 calc 3.5181620121
4 / 1000 :   1.35512e+07 calc 3.11074590683
5 / 1000 :   1.31507e+07 calc 3.14366912842
